<?xml version="1.0" encoding="iso-8859-1"?>
<!-- Generator: Adobe Illustrator 23.0.0, SVG Export Plug-In . SVG Version: 6.00 Build 0)  -->
<svg version="1.1" xmlns="http://www.w3.org/2000/svg" xmlns:xlink="http://www.w3.org/1999/xlink" x="0px" y="0px"
	 viewBox="0 0 607.575 600.25" style="enable-background:new 0 0 607.575 600.25;" xml:space="preserve">
<g id="&#x421;&#x43B;&#x43E;&#x439;_3">
	<path style="fill:none;stroke:#F2F2F2;stroke-width:0.75;stroke-miterlimit:10;" d="M607.2,251.3c0-5.937-4.813-10.75-10.75-10.75
		c-0.704,0-1.39,0.072-2.057,0.202c-3.94-19.64-9.856-38.836-17.728-57.449c-15.116-35.739-36.757-67.835-64.319-95.398
		c-16.238-16.237-34.061-30.401-53.263-42.405c0.978-1.737,1.542-3.739,1.542-5.874c0-6.627-5.373-12-12-12
		c-4.433,0-8.295,2.41-10.373,5.985c-6.949-3.603-14.048-6.955-21.305-10.025C379.946,7.935,340.642,0,300.125,0
		s-79.821,7.935-116.822,23.585c-19.917,8.424-38.698,18.88-56.198,31.252c-2.246-2.576-5.543-4.212-9.229-4.212
		c-6.766,0-12.25,5.484-12.25,12.25c0,2.554,0.783,4.924,2.12,6.887c-2.37,1.985-4.711,4.01-7.026,6.073
		c-1.277-1.357-3.084-2.209-5.094-2.209c-3.866,0-7,3.134-7,7c0,1.836,0.713,3.502,1.869,4.75c-0.863,0.843-1.735,1.674-2.59,2.529
		c-27.563,27.563-49.203,59.66-64.319,95.398C7.935,220.304,0,259.608,0,300.125c0,37.132,6.685,73.24,19.845,107.496
		c-4.247,1.848-7.22,6.077-7.22,11.004c0,6.627,5.373,12,12,12c1.667,0,3.254-0.341,4.697-0.956
		c14.672,30.662,34.332,58.425,58.582,82.676c27.563,27.563,59.66,49.203,95.398,64.319c37.001,15.649,76.306,23.585,116.822,23.585
		s79.821-7.936,116.822-23.585c35.738-15.116,67.835-36.757,95.398-64.319c27.563-27.563,49.203-59.66,64.319-95.398
		c5.604-13.25,10.201-26.799,13.816-40.59c0.688,0.169,1.404,0.268,2.144,0.268c4.971,0,9-4.029,9-9c0-4.32-3.045-7.926-7.105-8.796
		c3.804-19.19,5.73-38.799,5.73-58.704c0-12.86-0.806-25.596-2.398-38.177C603.125,261.26,607.2,256.761,607.2,251.3z M600,300.125
		c0,20.068-1.997,39.676-5.775,58.65c-0.52-0.094-1.053-0.15-1.6-0.15c-4.971,0-9,4.029-9,9c0,4.125,2.779,7.594,6.565,8.657
		C556.402,504.871,439.17,600,300.125,600c-119.042,0-222.099-69.726-270.492-170.48c4.123-1.899,6.992-6.057,6.992-10.895
		c0-6.627-5.373-12-12-12c-1.586,0-3.097,0.315-4.483,0.874C7.307,374.145,0.25,337.946,0.25,300.125
		c0-83.972,34.709-159.979,90.515-214.468c1.259,1.216,2.97,1.968,4.86,1.968c3.866,0,7-3.134,7-7c0-1.713-0.617-3.281-1.639-4.497
		c2.303-2.049,4.634-4.067,6.999-6.045c2.228,3.052,5.822,5.042,9.89,5.042c6.766,0,12.25-5.484,12.25-12.25
		c0-2.932-1.033-5.622-2.751-7.73C176.241,20.583,235.851,0.25,300.125,0.25c49.708,0,96.623,12.171,137.942,33.669
		c-0.919,1.697-1.442,3.641-1.442,5.706c0,6.627,5.373,12,12,12c4.351,0,8.15-2.324,10.254-5.79
		c68.63,43.001,118.703,112.984,135.219,194.981c-4.805,1.074-8.398,5.356-8.398,10.484c0,5.937,4.813,10.75,10.75,10.75
		c0.384,0,0.763-0.022,1.137-0.061C599.179,274.48,600,287.208,600,300.125z"/>
</g>
<g id="&#x421;&#x43B;&#x43E;&#x439;_2">
	<circle style="fill:#F2F2F2;" cx="117.875" cy="62.875" r="7.273"/>
	<circle style="fill:#F2F2F2;" cx="522.125" cy="502.125" r="6"/>
	<circle style="fill:#F2F2F2;" cx="132.625" cy="548.625" r="8.5"/>
	<circle style="fill:#F2F2F2;" cx="519.625" cy="95.625" r="8.5"/>
	<circle style="fill:#F2F2F2;" cx="596.45" cy="251.3" r="6.675"/>
</g>
</svg>
